{
  "photos":{
    "page":1,
    "pages":10,
    "perpage":100,
    "total":"1000",
    "photo":[
      {
        "id":"23546196988",
        "owner":"130460019@N02",
        "secret":"efa63553b3",
        "server":"4495",
        "farm":5,
        "title":"How cool is this headwrap dressing?",
        "ispublic":1,
        "isfriend":0,
        "isfamily":0
      },
      {
        "id":"23546197578",
        "owner":"155485246@N06",
        "secret":"1edf68c9a5",
        "server":"4334",
        "farm":5,
        "title":"Durga puja 17",
        "ispublic":1,
        "isfriend":0,
        "isfamily":0
      },
      {
        "id":"23546198148",
        "owner":"147087174@N07",
        "secret":"7c0936afa2",
        "server":"4419",
        "farm":5,
        "title":"Best fruit ever! https:\/\/t.co\/ZWpdin6f9X #istanbul #food #lezzet #mutfak #nefis #kebap #Tarif #yemektarifleri #foodporn #recipe #cooking #…",
        "ispublic":1,
        "isfriend":0,
        "isfamily":0
      },
      {
        "id":"23546199118",
        "owner":"109443186@N08",
        "secret":"5a45ee64a9",
        "server":"4345",
        "farm":5,
        "title":"Scarif by Chtilug",
        "ispublic":1,
        "isfriend":0,
        "isfamily":0
      },
      {
        "id":"23546200858",
        "owner":"129573641@N02",
        "secret":"411f15c231",
        "server":"4338",
        "farm":5,
        "title":"1S2A0095",
        "ispublic":1,
        "isfriend":0,
        "isfamily":0
      },
      {
        "id":"23546202578",
        "owner":"149310652@N06",
        "secret":"9313c5d5f4",
        "server":"4508",
        "farm":5,
        "title":"",
        "ispublic":1,
        "isfriend":0,
        "isfamily":0
      },
      {
        "id":"23546202868",
        "owner":"153529016@N06",
        "secret":"a87d0f82d4",
        "server":"4395",
        "farm":5,
        "title":"Elon Musk proposes city-to-city travel by rocket, right here on Earth",
        "ispublic":1,
        "isfriend":0,
        "isfamily":0
      },
      {
        "id":"23546204028",
        "owner":"151349340@N07",
        "secret":"68a065fd9b",
        "server":"4434",
        "farm":5,
        "title":"Toe Socks, Five Fingers Athletic Running No Show Socks, Ankle socks",
        "ispublic":1,
        "isfriend":0,
        "isfamily":0
      },
      {
        "id":"23546204128",
        "owner":"7525583@N07",
        "secret":"b7338821ff",
        "server":"4481",
        "farm":5,
        "title":"DSC00052",
        "ispublic":1,
        "isfriend":0,
        "isfamily":0
      },
      {
        "id":"23546204368",
        "owner":"22070130@N07",
        "secret":"3f93770e90",
        "server":"4501",
        "farm":5,
        "title":"20170611 1328 PENTAX K-1 0166 250 mm",
        "ispublic":1,
        "isfriend":0,
        "isfamily":0
      },
      {
        "id":"23546206378",
        "owner":"144547753@N04",
        "secret":"3ab025c9b1",
        "server":"4459",
        "farm":5,
        "title":"TRENDING NOW!! HOT 2017 Jewelry!!",
        "ispublic":1,
        "isfriend":0,
        "isfamily":0
      },
      {
        "id":"23546208018",
        "owner":"143700962@N04",
        "secret":"a68d6fa1e5",
        "server":"4499",
        "farm":5,
        "title":"2017_09_29_171508.jpg",
        "ispublic":1,
        "isfriend":0,
        "isfamily":0
      },
      {
        "id":"23546209148",
        "owner":"154142005@N06",
        "secret":"4c2a743a9c",
        "server":"4445",
        "farm":5,
        "title":"Chemisier - Lerros",
        "ispublic":1,
        "isfriend":0,
        "isfamily":0
      },
      {
        "id":"23546209998",
        "owner":"147796575@N05",
        "secret":"eeac348821",
        "server":"4481",
        "farm":5,
        "title":"",
        "ispublic":1,
        "isfriend":0,
        "isfamily":0
      },
      {
        "id":"23546210158",
        "owner":"149739395@N06",
        "secret":"1752dfa2ba",
        "server":"4457",
        "farm":5,
        "title":"1506722551-dinh-gia-camry-2014-ban-2-0",
        "ispublic":1,
        "isfriend":0,
        "isfamily":0
      },
      {
        "id":"23546210538",
        "owner":"53086801@N07",
        "secret":"4bfd5fed20",
        "server":"4431",
        "farm":5,
        "title":"_Larinia argiopiformis_ #Araneidae female #spider #コガネグモダマシ ♀  一般に○○ダマシは○○に似ているのだが、このクモはコガネグモには似ていない。騙された。網を張るのは夜なので、昼間だとまるで徘徊性。最初に図鑑で網を張らないクモのページを探してしまい、騙された。",
        "ispublic":1,
        "isfriend":0,
        "isfamily":0
      },
      {
        "id":"23546211758",
        "owner":"132774023@N02",
        "secret":"82f733055a",
        "server":"4511",
        "farm":5,
        "title":"IMG-20170929-WA0011",
        "ispublic":1,
        "isfriend":0,
        "isfamily":0
      },
      {
        "id":"23546213238",
        "owner":"152557770@N04",
        "secret":"20c9af2a2b",
        "server":"4466",
        "farm":5,
        "title":"",
        "ispublic":1,
        "isfriend":0,
        "isfamily":0
      },
      {
        "id":"23546215948",
        "owner":"149603895@N08",
        "secret":"a6331a78a0",
        "server":"4335",
        "farm":5,
        "title":"Today I signed the papers! Officially separated!!!",
        "ispublic":1,
        "isfriend":0,
        "isfamily":0
      },
      {
        "id":"23546216668",
        "owner":"37433921@N02",
        "secret":"a46847124c",
        "server":"4423",
        "farm":5,
        "title":"IMG_1314",
        "ispublic":1,
        "isfriend":0,
        "isfamily":0
      },
      {
        "id":"23546218428",
        "owner":"48505131@N02",
        "secret":"6724f5f5cd",
        "server":"4494",
        "farm":5,
        "title":"_1AT6114",
        "ispublic":1,
        "isfriend":0,
        "isfamily":0
      },
      {
        "id":"36689582344",
        "owner":"77099498@N07",
        "secret":"c2f2d44ed3",
        "server":"4491",
        "farm":5,
        "title":"The #bösendorfer - the versions\/improvisations for \"Crucify\" and \"Precious Things\" were unbelievably good! #toriamos #tori #concert #earswithfeet #xploreurself #grandpiano #live #tempodrom",
        "ispublic":1,
        "isfriend":0,
        "isfamily":0
      },
      {
        "id":"36689584574",
        "owner":"32580389@N06",
        "secret":"49da144349",
        "server":"4439",
        "farm":5,
        "title":"Pompones",
        "ispublic":1,
        "isfriend":0,
        "isfamily":0
      },
      {
        "id":"36689584584",
        "owner":"142776095@N06",
        "secret":"9c48f0f340",
        "server":"4443",
        "farm":5,
        "title":"IMG-20170929-WA0001",
        "ispublic":1,
        "isfriend":0,
        "isfamily":0
      },
      {
        "id":"36689585504",
        "owner":"101648391@N08",
        "secret":"6ce7502857",
        "server":"4448",
        "farm":5,
        "title":"EM103586.jpg",
        "ispublic":1,
        "isfriend":0,
        "isfamily":0
      },
      {
        "id":"36689586884",
        "owner":"143929801@N04",
        "secret":"c7a841415a",
        "server":"4507",
        "farm":5,
        "title":"FTSE Russell przekwalifikowuje Polskę do rynków rozwiniętych",
        "ispublic":1,
        "isfriend":0,
        "isfamily":0
      },
      {
        "id":"36689592174",
        "owner":"153639410@N03",
        "secret":"f35a220074",
        "server":"4392",
        "farm":5,
        "title":"",
        "ispublic":1,
        "isfriend":0,
        "isfamily":0
      },
      {
        "id":"36689596184",
        "owner":"159657877@N06",
        "secret":"6b0f678b85",
        "server":"4477",
        "farm":5,
        "title":"Margarita",
        "ispublic":1,
        "isfriend":0,
        "isfamily":0
      },
      {
        "id":"36728409633",
        "owner":"155462188@N03",
        "secret":"24ee229bc3",
        "server":"4443",
        "farm":5,
        "title":"Pinned to Motivation on Pinterest",
        "ispublic":1,
        "isfriend":0,
        "isfamily":0
      },
      {
        "id":"36728410223",
        "owner":"27791418@N00",
        "secret":"7fdcde1fd3",
        "server":"4334",
        "farm":5,
        "title":"DTS Configuration, most frequently applied",
        "ispublic":1,
        "isfriend":0,
        "isfamily":0
      },
      {
        "id":"36728418943",
        "owner":"51915268@N08",
        "secret":"52f724f99f",
        "server":"4352",
        "farm":5,
        "title":"For those of you who missed @mercadolosolvidados, I'm working on listing some leftover prints, postcards, stickers and original art from the show on my website! Link now posted in my profile 😺❤✨ #mercadolosolvidados #gretchenlewi",
        "ispublic":1,
        "isfriend":0,
        "isfamily":0
      },
      {
        "id":"36728419843",
        "owner":"151733483@N06",
        "secret":"b2a1bc03cf",
        "server":"4416",
        "farm":5,
        "title":"tumblr_ox1xpooDsb1qkvbwso1_r1_500",
        "ispublic":1,
        "isfriend":0,
        "isfamily":0
      },
      {
        "id":"36728421053",
        "owner":"151771605@N03",
        "secret":"5f9878c8c6",
        "server":"4399",
        "farm":5,
        "title":"Fitness Quotes : Motivational Quotes &amp; Inspiration | Fabletics...",
        "ispublic":1,
        "isfriend":0,
        "isfamily":0
      },
      {
        "id":"36728421503",
        "owner":"13526991@N00",
        "secret":"30b52baa43",
        "server":"4449",
        "farm":5,
        "title":"Osborne House East Cowes",
        "ispublic":1,
        "isfriend":0,
        "isfamily":0
      },
      {
        "id":"36728423913",
        "owner":"45537586@N07",
        "secret":"2236d7620a",
        "server":"4348",
        "farm":5,
        "title":"YAGP 2017-Taylor Brandt Photography",
        "ispublic":1,
        "isfriend":0,
        "isfamily":0
      },
      {
        "id":"36728424703",
        "owner":"154561953@N07",
        "secret":"f49c462927",
        "server":"4345",
        "farm":5,
        "title":"Wedding Hairstyles : Elstiles Long Wedding Updo Hairstyles \/ www.deerpearlflow...... - #WeddingHairstyle",
        "ispublic":1,
        "isfriend":0,
        "isfamily":0
      },
      {
        "id":"36728425903",
        "owner":"157160610@N03",
        "secret":"36d43a40bf",
        "server":"4448",
        "farm":5,
        "title":"Seven Magic Mountains \/\/ Las Vegas, NV",
        "ispublic":1,
        "isfriend":0,
        "isfamily":0
      },
      {
        "id":"36728427353",
        "owner":"7385863@N06",
        "secret":"dc730522af",
        "server":"4349",
        "farm":5,
        "title":"",
        "ispublic":1,
        "isfriend":0,
        "isfamily":0
      },
      {
        "id":"36728428073",
        "owner":"126027431@N07",
        "secret":"13dd71821d",
        "server":"4500",
        "farm":5,
        "title":"IMG_5639_HDR-Editar.jpg",
        "ispublic":1,
        "isfriend":0,
        "isfamily":0
      },
      {
        "id":"36728428583",
        "owner":"31477800@N07",
        "secret":"70b4a80df1",
        "server":"4509",
        "farm":5,
        "title":"Very old door at AL Qadimah, Saudi Arabia ...",
        "ispublic":1,
        "isfriend":0,
        "isfamily":0
      },
      {
        "id":"37141207460",
        "owner":"97437833@N00",
        "secret":"48aa474a4a",
        "server":"4437",
        "farm":5,
        "title":"Mustang",
        "ispublic":1,
        "isfriend":0,
        "isfamily":0
      },
      {
        "id":"37141211810",
        "owner":"65359594@N07",
        "secret":"1b3af9d633",
        "server":"4499",
        "farm":5,
        "title":"A dust storm blows across the Alvord desert playa as the weather turns overhead.",
        "ispublic":1,
        "isfriend":0,
        "isfamily":0
      },
      {
        "id":"37141212180",
        "owner":"53385330@N06",
        "secret":"08bc17435e",
        "server":"4397",
        "farm":5,
        "title":"IMG_EOS5DMK3_0_2999",
        "ispublic":1,
        "isfriend":0,
        "isfamily":0
      },
      {
        "id":"37141212740",
        "owner":"157422658@N06",
        "secret":"b03b16839e",
        "server":"4370",
        "farm":5,
        "title":"HomCom Foldable Lightweight Manual Transport Wheelchair – Black For Sale",
        "ispublic":1,
        "isfriend":0,
        "isfamily":0
      },
      {
        "id":"37141215000",
        "owner":"38527984@N05",
        "secret":"b2def842d5",
        "server":"4408",
        "farm":5,
        "title":"",
        "ispublic":1,
        "isfriend":0,
        "isfamily":0
      },
      {
        "id":"37141215330",
        "owner":"146490378@N08",
        "secret":"c2d5bfb182",
        "server":"4446",
        "farm":5,
        "title":"Someone size swap with me I need a 9.5 these are like a 10.5",
        "ispublic":1,
        "isfriend":0,
        "isfamily":0
      },
      {
        "id":"37141215780",
        "owner":"129994161@N07",
        "secret":"a6b1920d54",
        "server":"4383",
        "farm":5,
        "title":"We had fun last Sunday for Food Truck Fun Day and baptisms. Our pastors maybe had too much fun! Join us this Sunday for worship gathering, kids classes and fun at 10:30 AM. We meet every Sunday inside Cheyenne Middle School (1271 W Covell, Edmond)",
        "ispublic":1,
        "isfriend":0,
        "isfamily":0
      },
      {
        "id":"37141217120",
        "owner":"150227103@N06",
        "secret":"52e68cd055",
        "server":"4486",
        "farm":5,
        "title":"Dot44 German Custom Camo",
        "ispublic":1,
        "isfriend":0,
        "isfamily":0
      },
      {
        "id":"37141219720",
        "owner":"64943649@N07",
        "secret":"d9349ab297",
        "server":"4489",
        "farm":5,
        "title":"Ging_The-Anti-Hero",
        "ispublic":1,
        "isfriend":0,
        "isfamily":0
      },
      {
        "id":"37141222580",
        "owner":"137729389@N08",
        "secret":"6dc8c450fe",
        "server":"4461",
        "farm":5,
        "title":"Bila Allah titipkan sebagian kebahagiaanku terletak pada kedua tanganmu, mohon jangan biarkan tangan itu menyentuh apa yang bukan milikmu. Bila Allah titipkan sebagian damaiku terletak pada hatimu, mohon jangan hiasi hati itu dengan kekotoran. Bila Allah",
        "ispublic":1,
        "isfriend":0,
        "isfamily":0
      },
      {
        "id":"37141224460",
        "owner":"131537526@N05",
        "secret":"23f97d82a3",
        "server":"4334",
        "farm":5,
        "title":"‪#Hare #Krishna #Iskcon #london 7:00am GMT 26.9.17 #courtesy #facebook #page #of #temple‬",
        "ispublic":1,
        "isfriend":0,
        "isfamily":0
      },
      {
        "id":"37141226630",
        "owner":"66347507@N00",
        "secret":"c05dca3a4a",
        "server":"4347",
        "farm":5,
        "title":"Felicitaciones para @yronmina y su señora por su nuevo hijo",
        "ispublic":1,
        "isfriend":0,
        "isfamily":0
      },
      {
        "id":"37141227480",
        "owner":"130474053@N02",
        "secret":"b9f554e9e6",
        "server":"4371",
        "farm":5,
        "title":"Giovanni Iacopetti 26 settembre 2017 2.jpg",
        "ispublic":1,
        "isfriend":0,
        "isfamily":0
      },
      {
        "id":"37141229330",
        "owner":"152015661@N04",
        "secret":"8994ecfbb4",
        "server":"4414",
        "farm":5,
        "title":"Grillwagen Landmann elegante Holz-Stahl-Kombination",
        "ispublic":1,
        "isfriend":0,
        "isfamily":0
      },
      {
        "id":"37141229770",
        "owner":"154145614@N05",
        "secret":"803e0a5952",
        "server":"4399",
        "farm":5,
        "title":"Kyle Attempts To Turn Autumn Into Summer With Three Sunny New Songs",
        "ispublic":1,
        "isfriend":0,
        "isfamily":0
      },
      {
        "id":"37141231040",
        "owner":"77047073@N00",
        "secret":"5e825beae4",
        "server":"4398",
        "farm":5,
        "title":"161009_120354.jpg",
        "ispublic":1,
        "isfriend":0,
        "isfamily":0
      },
      {
        "id":"37141231190",
        "owner":"68949420@N03",
        "secret":"1b02e19cd9",
        "server":"4462",
        "farm":5,
        "title":"Giornata fantastica a #forumleopolda2017 per un #collision di #scimpulse #legoseriousplay #brickdesignteam",
        "ispublic":1,
        "isfriend":0,
        "isfamily":0
      },
      {
        "id":"37141232170",
        "owner":"159776735@N05",
        "secret":"fc2f633f99",
        "server":"4503",
        "farm":5,
        "title":"Class 9 29 17",
        "ispublic":1,
        "isfriend":0,
        "isfamily":0
      },
      {
        "id":"37351335996",
        "owner":"85197777@N08",
        "secret":"6d360b4c97",
        "server":"4509",
        "farm":5,
        "title":"IMGL7268",
        "ispublic":1,
        "isfriend":0,
        "isfamily":0
      },
      {
        "id":"37351336396",
        "owner":"157582390@N03",
        "secret":"885269bf95",
        "server":"4445",
        "farm":5,
        "title":"My Day Today",
        "ispublic":1,
        "isfriend":0,
        "isfamily":0
      },
      {
        "id":"37351338176",
        "owner":"30488666@N08",
        "secret":"d75287466c",
        "server":"4374",
        "farm":5,
        "title":"Jack, with John, his son",
        "ispublic":1,
        "isfriend":0,
        "isfamily":0
      },
      {
        "id":"37351338566",
        "owner":"45655127@N05",
        "secret":"d74a08b0c3",
        "server":"4380",
        "farm":5,
        "title":"22069257_122658251731426_108005976384208896_n",
        "ispublic":1,
        "isfriend":0,
        "isfamily":0
      },
      {
        "id":"37351340106",
        "owner":"140353133@N04",
        "secret":"db27c141ae",
        "server":"4450",
        "farm":5,
        "title":"17_09_30_0276",
        "ispublic":1,
        "isfriend":0,
        "isfamily":0
      },
      {
        "id":"37351342246",
        "owner":"144899019@N03",
        "secret":"6d9feb5277",
        "server":"4385",
        "farm":5,
        "title":"Untitled",
        "ispublic":1,
        "isfriend":0,
        "isfamily":0
      },
      {
        "id":"37351342796",
        "owner":"80049156@N08",
        "secret":"719c7a5b1a",
        "server":"4514",
        "farm":5,
        "title":"Walls of Memory",
        "ispublic":1,
        "isfriend":0,
        "isfamily":0
      },
      {
        "id":"37351342966",
        "owner":"8401126@N04",
        "secret":"fa4b5154cf",
        "server":"4358",
        "farm":5,
        "title":"Photo",
        "ispublic":1,
        "isfriend":0,
        "isfamily":0
      },
      {
        "id":"37351346036",
        "owner":"73403162@N00",
        "secret":"5708c66c3e",
        "server":"4461",
        "farm":5,
        "title":"P2220321-Edit",
        "ispublic":1,
        "isfriend":0,
        "isfamily":0
      },
      {
        "id":"37351346846",
        "owner":"124505290@N08",
        "secret":"cec33cc530",
        "server":"4347",
        "farm":5,
        "title":"Anyone got air reversals size 9 or 9.5? Helping out a friend.",
        "ispublic":1,
        "isfriend":0,
        "isfamily":0
      },
      {
        "id":"37351347226",
        "owner":"155237248@N08",
        "secret":"763ebcbdf4",
        "server":"4511",
        "farm":5,
        "title":"Sacrificial God Oil",
        "ispublic":1,
        "isfriend":0,
        "isfamily":0
      },
      {
        "id":"37351348076",
        "owner":"16939944@N06",
        "secret":"0fe1c575d0",
        "server":"4486",
        "farm":5,
        "title":"IMG_8404",
        "ispublic":1,
        "isfriend":0,
        "isfamily":0
      },
      {
        "id":"37351348226",
        "owner":"158908879@N03",
        "secret":"4d8dfb89f4",
        "server":"4491",
        "farm":5,
        "title":"Transmountain #elpasotexas #nature #mountains #beautyinnature",
        "ispublic":1,
        "isfriend":0,
        "isfamily":0
      },
      {
        "id":"37351349906",
        "owner":"77232988@N02",
        "secret":"2b83a9dfd2",
        "server":"4393",
        "farm":5,
        "title":"WxTweeter© Image",
        "ispublic":1,
        "isfriend":0,
        "isfamily":0
      },
      {
        "id":"37351352196",
        "owner":"90535065@N03",
        "secret":"b92c1fd82b",
        "server":"4437",
        "farm":5,
        "title":"test123",
        "ispublic":1,
        "isfriend":0,
        "isfamily":0
      },
      {
        "id":"37351352726",
        "owner":"152581581@N05",
        "secret":"5d717b6a9f",
        "server":"4486",
        "farm":5,
        "title":"P1750817",
        "ispublic":1,
        "isfriend":0,
        "isfamily":0
      },
      {
        "id":"37351353276",
        "owner":"9082181@N07",
        "secret":"3da986acde",
        "server":"4416",
        "farm":5,
        "title":"IMG_4904.jpg",
        "ispublic":1,
        "isfriend":0,
        "isfamily":0
      },
      {
        "id":"37367719412",
        "owner":"47552030@N00",
        "secret":"78c92b20d5",
        "server":"4385",
        "farm":5,
        "title":"tinker tailor",
        "ispublic":1,
        "isfriend":0,
        "isfamily":0
      },
      {
        "id":"37367721052",
        "owner":"22385253@N06",
        "secret":"f429032f3d",
        "server":"4492",
        "farm":5,
        "title":"Frozen",
        "ispublic":1,
        "isfriend":0,
        "isfamily":0
      },
      {
        "id":"37367726812",
        "owner":"151350702@N04",
        "secret":"d38ebc9d8c",
        "server":"4455",
        "farm":5,
        "title":"Passagens para Nova York a partir de R$ 1.678 ou com voos diretos de São Paulo por R$ 2.094 com taxas incluídas! https:\/\/t.co\/p35Whn9gC1",
        "ispublic":1,
        "isfriend":0,
        "isfamily":0
      },
      {
        "id":"37367727162",
        "owner":"12131771@N03",
        "secret":"d6c8f3d241",
        "server":"4382",
        "farm":5,
        "title":"IMG_0181",
        "ispublic":1,
        "isfriend":0,
        "isfamily":0
      },
      {
        "id":"37367727962",
        "owner":"61234596@N07",
        "secret":"717fa1e41b",
        "server":"4406",
        "farm":5,
        "title":"Untitled",
        "ispublic":1,
        "isfriend":0,
        "isfamily":0
      },
      {
        "id":"37367728222",
        "owner":"52182002@N02",
        "secret":"e8cce60031",
        "server":"4489",
        "farm":5,
        "title":"Film+Music. Make stuff. #FilmAndMusic",
        "ispublic":1,
        "isfriend":0,
        "isfamily":0
      },
      {
        "id":"37367730932",
        "owner":"146913876@N06",
        "secret":"edb1074347",
        "server":"4489",
        "farm":5,
        "title":"750_2987-2.jpg",
        "ispublic":1,
        "isfriend":0,
        "isfamily":0
      },
      {
        "id":"37367731482",
        "owner":"97079353@N04",
        "secret":"99c83cc206",
        "server":"4334",
        "farm":5,
        "title":"P7050323_DxO",
        "ispublic":1,
        "isfriend":0,
        "isfamily":0
      },
      {
        "id":"37367732962",
        "owner":"12401004@N04",
        "secret":"efe1142a36",
        "server":"4353",
        "farm":5,
        "title":"",
        "ispublic":1,
        "isfriend":0,
        "isfamily":0
      },
      {
        "id":"37367733222",
        "owner":"151390901@N04",
        "secret":"4da4eb4a8b",
        "server":"4429",
        "farm":5,
        "title":"BEAST FROM HAUNTED CAVE - MOVIE - 1959",
        "ispublic":1,
        "isfriend":0,
        "isfamily":0
      },
      {
        "id":"37367735212",
        "owner":"73827808@N00",
        "secret":"c3b6c31ae6",
        "server":"4390",
        "farm":5,
        "title":"Part of the Wairoa River",
        "ispublic":1,
        "isfriend":0,
        "isfamily":0
      },
      {
        "id":"37367736152",
        "owner":"58829491@N00",
        "secret":"a0a6bb504a",
        "server":"4346",
        "farm":5,
        "title":"Fuel & Tool",
        "ispublic":1,
        "isfriend":0,
        "isfamily":0
      },
      {
        "id":"37398777621",
        "owner":"151283987@N08",
        "secret":"c0aec82ddb",
        "server":"4509",
        "farm":5,
        "title":"JUST STAY WINNING  Ruddy Kingfisher | Photo by ©Young Sung Bae  It is not the strongest of the species that survives, nor the most intelligent, but rather the one most adaptable to change. 📷🔃 @nazcorey #birds #birding #au",
        "ispublic":1,
        "isfriend":0,
        "isfamily":0
      },
      {
        "id":"37398777691",
        "owner":"45412657@N06",
        "secret":"133a38f3f3",
        "server":"4429",
        "farm":5,
        "title":"Baumrelief-bw_20170929_4930.jpg",
        "ispublic":1,
        "isfriend":0,
        "isfamily":0
      },
      {
        "id":"37398779031",
        "owner":"81494713@N00",
        "secret":"7dc5a69d62",
        "server":"4467",
        "farm":5,
        "title":"Garden Critters",
        "ispublic":1,
        "isfriend":0,
        "isfamily":0
      },
      {
        "id":"37398790591",
        "owner":"149567335@N07",
        "secret":"2fb1761190",
        "server":"4488",
        "farm":5,
        "title":"D-2017-09-30-0715_f",
        "ispublic":1,
        "isfriend":0,
        "isfamily":0
      },
      {
        "id":"37398793831",
        "owner":"146424332@N06",
        "secret":"e3115088c0",
        "server":"4485",
        "farm":5,
        "title":"DSC_4166",
        "ispublic":1,
        "isfriend":0,
        "isfamily":0
      },
      {
        "id":"37398798951",
        "owner":"49118647@N08",
        "secret":"83c5e8ec4a",
        "server":"4486",
        "farm":5,
        "title":"CamGrab [LW.20170929231600.jpg]",
        "ispublic":1,
        "isfriend":0,
        "isfamily":0
      },
      {
        "id":"37398801221",
        "owner":"152562025@N05",
        "secret":"ac3398bcae",
        "server":"4371",
        "farm":5,
        "title":"LuxuryLifestyle BillionaireLifesyle Millionaire Rich Motivation WORK 101 1 http:\/\/ift.tt\/2lQSz1L",
        "ispublic":1,
        "isfriend":0,
        "isfamily":0
      },
      {
        "id":"37398801441",
        "owner":"150730469@N04",
        "secret":"be6616c615",
        "server":"4415",
        "farm":5,
        "title":"",
        "ispublic":1,
        "isfriend":0,
        "isfamily":0
      },
      {
        "id":"37398801491",
        "owner":"69197314@N03",
        "secret":"4690c48b6b",
        "server":"4438",
        "farm":5,
        "title":"PICT024",
        "ispublic":1,
        "isfriend":0,
        "isfamily":0
      },
      {
        "id":"37398802281",
        "owner":"55275900@N08",
        "secret":"8c5258a31c",
        "server":"4346",
        "farm":5,
        "title":"2017-09-30_01-16-09",
        "ispublic":1,
        "isfriend":0,
        "isfamily":0
      },
      {
        "id":"37398802631",
        "owner":"144429258@N06",
        "secret":"c15b0359a9",
        "server":"4487",
        "farm":5,
        "title":"2017-09-29_22.07.15.UTC.jpg",
        "ispublic":1,
        "isfriend":0,
        "isfamily":0
      },
      {
        "id":"37398802751",
        "owner":"158290139@N08",
        "secret":"fe2348be12",
        "server":"4360",
        "farm":5,
        "title":"",
        "ispublic":1,
        "isfriend":0,
        "isfamily":0
      },
      {
        "id":"37398803261",
        "owner":"150519650@N07",
        "secret":"6f0d53aa58",
        "server":"4439",
        "farm":5,
        "title":"Tubular daylighting devices",
        "ispublic":1,
        "isfriend":0,
        "isfamily":0
      }
    ]
  },
  "stat":"ok"
}